%YAML 1.1
%TAG !u! tag:unity3d.com,2011:
--- !u!1045 &1
EditorBuildSettings:
  m_ObjectHideFlags: 0
  serializedVersion: 2
  m_Scenes:
  - enabled: 1
    path: Assets/Scenes/Main_Menu.unity
    guid: 43c03a620fe53e94d8853130a6cdd68c
  - enabled: 1
    path: Assets/Scenes/Temple_Scene.unity
    guid: 3eac4599ef64f6b4eada95b1b4122117
  - enabled: 1
    path: Assets/Scenes/Dojo_Scene.unity
    guid: c71fba5061f7a0e4fbae33952d333a3a
  - enabled: 1
    path: Assets/Scenes/Water_Scene.unity
    guid: 93055db16885c96468e8d530a0ed7d22
  m_configObjects: {}
